<?xml version="1.0" encoding="ASCII"?>
<sdkproject:SdkProject xmi:version="2.0" xmlns:xmi="http://www.omg.org/XMI" xmlns:xsi="http://www.w3.org/2001/XMLSchema-instance" xmlns:sdkproject="http://www.xilinx.com/sdkproject" name="ZturnDriveCore1" location="D:/FreeLance/XilinxWorkspace/Dinocon1/SW/ZturnDriveCore1" platform="D:/FreeLance/XilinxWorkspace/Dinocon1/SW/ZturnDesign_wrapper/export/ZturnDesign_wrapper/ZturnDesign_wrapper.xpfm" platformUID="xilinx:mys-7z010::0.0(custom)" systemProject="ZturnDriveCore1_system" sysConfig="ZturnDesign_wrapper" runtime="cpp" cpu="domain_ps7_cortexa9_1" cpuInstance="ps7_cortexa9_1" os="standalone" mssSignature="cabd5c26dc9366903c8357c863c2e3cc">
  <configuration name="Debug" id="xilinx.gnu.armv7.exe.debug.169226590">
    <configBuildOptions xsi:type="sdkproject:SdkOptions"/>
    <lastBuildOptions xsi:type="sdkproject:SdkOptions"/>
  </configuration>
  <configuration name="Release" id="xilinx.gnu.armv7.exe.release.401386182" dirty="true">
    <configBuildOptions xsi:type="sdkproject:SdkOptions"/>
  </configuration>
  <template appTemplateName="hello_world"/>
</sdkproject:SdkProject>
